[
  [
    [1, 2],
    [2, 3],
    [3, 4],
    [4, 5],
    [5, 6],
    [1, 2],
    [4, 5],
    [5, 6],
    [1, 2],
    [7, 2]
  ],
  [
    [1, 2],
    [2, 3],
    [3, 4],
    [4, 5],
    [5, 6],
    [7, 3]
  ]
]